<?xml version="1.0" encoding="utf-8"?>
<!-- Generator: Adobe Illustrator 23.0.2, SVG Export Plug-In . SVG Version: 6.00 Build 0)  -->
<svg version="1.1"
     id="Layer_1"
     xmlns="http://www.w3.org/2000/svg"
     x="0px"
     y="0px"
     viewBox="0 0 200 200"
     style="enable-background:new 0 0 200 200;"
     xml:space="preserve"
>
<style type="text/css">
	.st0{fill:#FFFFFF;stroke:#000000;stroke-width:5;stroke-miterlimit:10;}
	.st1{fill:#FFFFFF;}
</style>
<circle class="st0" cx="100.4" cy="100.1" r="95.2"/>
<circle cx="166.2" cy="165.9" r="29.3"/>
<g>
	<path class="st1" d="M166.2,171c-0.6,0-1.2,0-1.2,0v9.4h-8.7v-31.5c0,0,4.7-0.3,10.1-0.3c8.4,0,13.1,3.4,13.1,10.5
		C179.4,165.5,175.2,171,166.2,171z M166.2,155.6c-0.5,0-1.2,0-1.2,0v8c0,0,0.6,0.2,1.6,0.2c2.5,0,3.9-1.4,3.9-4.1
		C170.5,157.3,169.3,155.6,166.2,155.6z"/>
</g>
<g>
	<g>
		<g>
			<g>
				<g>
					<path d="M121.3,154.9h-62c-1.7,0-3.1-1.4-3.1-3.1V48.5c0-1.7,1.4-3.1,3.1-3.1h82c1.7,0,3.1,1.4,3.1,3.1v82.4
						c0,0.8-0.3,1.6-0.9,2.2l-20,21.1C123.1,154.6,122.3,154.9,121.3,154.9z M62.5,148.7h57.5l18.3-19V51.6H62.5V148.7z"/>
					<path d="M120.6,154.9c-1.7,0-3.1-1.4-3.1-3.1v-22.5c0-1.7,1.4-3.1,3.1-3.1h20.9c1.7,0,3.1,1.4,3.1,3.1c0,1.7-1.4,3.1-3.1,3.1
						h-17.8v19.4C123.7,153.5,122.3,154.9,120.6,154.9z"/>
				</g>
			</g>
		</g>
	</g>
	<g>
		<path d="M94.5,94.7H74.2c-1.7,0-3.1-1.4-3.1-3.1V66.3c0-1.7,1.4-3.1,3.1-3.1h20.1c1.7,0,3.1,1.4,3.1,3.1v25.3
			C97.6,93.3,96.2,94.7,94.5,94.7z M77.3,88.4h13.9v-19H77.3V88.4z"/>
	</g>
	<path d="M126.8,69.4h-22.5c-1.7,0-3.1-1.4-3.1-3.1s1.4-3.1,3.1-3.1h22.5c1.7,0,3.1,1.4,3.1,3.1S128.5,69.4,126.8,69.4z"/>
	<path d="M115.6,82h-11.2c-1.7,0-3.1-1.4-3.1-3.1s1.4-3.1,3.1-3.1h11.2c1.7,0,3.1,1.4,3.1,3.1S117.3,82,115.6,82z"/>
	<path d="M126.8,94.7h-22.5c-1.7,0-3.1-1.4-3.1-3.1c0-1.7,1.4-3.1,3.1-3.1h22.5c1.7,0,3.1,1.4,3.1,3.1
		C129.9,93.3,128.5,94.7,126.8,94.7z"/>
	<path d="M126.8,107.3H74.2c-1.7,0-3.1-1.4-3.1-3.1c0-1.7,1.4-3.1,3.1-3.1h52.6c1.7,0,3.1,1.4,3.1,3.1
		C129.9,105.9,128.5,107.3,126.8,107.3z"/>
	<path d="M126.8,120H74.2c-1.7,0-3.1-1.4-3.1-3.1c0-1.7,1.4-3.1,3.1-3.1h52.6c1.7,0,3.1,1.4,3.1,3.1
		C129.9,118.6,128.5,120,126.8,120z"/>
	<path d="M106.4,132.6H74.2c-1.7,0-3.1-1.4-3.1-3.1c0-1.7,1.4-3.1,3.1-3.1h32.2c1.7,0,3.1,1.4,3.1,3.1
		C109.5,131.2,108.1,132.6,106.4,132.6z"/>
</g>
</svg>
