<?xml version="1.0" encoding="UTF-8" standalone="no"?>
<!-- Created with Inkscape (http://www.inkscape.org/) -->

<svg
   version="1.1"
   id="svg1"
   width="208.05629"
   height="52.688999"
   viewBox="0 0 208.05629 52.688999"
   sodipodi:docname="Image_bouton_OA.svg"
   inkscape:version="1.3 (0e150ed6c4, 2023-07-21)"
   xmlns:inkscape="http://www.inkscape.org/namespaces/inkscape"
   xmlns:sodipodi="http://sodipodi.sourceforge.net/DTD/sodipodi-0.dtd"
   xmlns="http://www.w3.org/2000/svg"
   xmlns:svg="http://www.w3.org/2000/svg">
  <defs
     id="defs1" />
  <sodipodi:namedview
     id="namedview1"
     pagecolor="#ffffff"
     bordercolor="#000000"
     borderopacity="0.25"
     inkscape:showpageshadow="2"
     inkscape:pageopacity="0.0"
     inkscape:pagecheckerboard="0"
     inkscape:deskcolor="#d1d1d1"
     inkscape:zoom="3.3682491"
     inkscape:cx="103.31777"
     inkscape:cy="77.636776"
     inkscape:window-width="1419"
     inkscape:window-height="1041"
     inkscape:window-x="389"
     inkscape:window-y="5"
     inkscape:window-maximized="0"
     inkscape:current-layer="g2" />
  <g
     inkscape:groupmode="layer"
     inkscape:label="Image"
     id="g1"
     transform="translate(-0.78341105,72.572913)">
    <g
       id="g2"
       transform="translate(0.52064682,-72.538459)">
      <path
         style="fill:#ececec"
         d="M 3.4639371,51.977666 C 2.7587717,51.605382 1.7890909,50.743196 1.3090909,50.061697 L 0.43636364,48.822608 V 26.327273 3.8319371 L 1.3090909,2.592848 c 0.48,-0.681499 1.4496808,-1.5436849 2.1548462,-1.91596857 L 4.746056,0 h 99.544854 99.54485 l 1.28212,0.67687943 c 0.70517,0.37228367 1.67485,1.23446957 2.15485,1.91596857 l 0.87272,1.2390891 V 26.327273 48.822608 l -0.87272,1.239089 c -0.48,0.681499 -1.44968,1.543685 -2.15485,1.915969 l -1.28212,0.676879 H 104.29091 4.746056 Z M 133.33791,36.325174 c 1.0992,-0.285068 1.11605,-0.31004 0.91951,-1.362328 -0.11012,-0.589565 -0.24732,-1.1198 -0.30488,-1.178299 -0.0576,-0.0585 -0.5236,0.03968 -1.03565,0.218182 -0.51204,0.178499 -1.72963,0.32239 -2.70576,0.319758 -3.22609,-0.0087 -5.16042,-1.81462 -5.5852,-5.214426 -0.25625,-2.050912 0.25617,-4.763911 1.15685,-6.12492 1.25242,-1.892535 2.74177,-2.291615 7.29924,-1.95587 0.78723,0.058 0.87984,-0.03271 1.04439,-1.022816 0.19977,-1.202104 0.42119,-1.081824 -2.78096,-1.510693 -3.05668,-0.409387 -6.59287,1.030496 -8.0912,3.294615 -1.81784,2.746954 -2.1918,7.892083 -0.78951,10.862751 1.70422,3.610295 5.79241,4.991697 10.87317,3.674046 z m 14.64859,-0.01493 c 1.17073,-0.287009 1.2156,-0.338772 1.05244,-1.214109 -0.2331,-1.250601 -0.45204,-1.421168 -1.37414,-1.070584 -1.12566,0.427974 -4.09261,0.373876 -5.215,-0.09509 -2.06685,-0.863583 -3.1011,-2.962742 -3.1011,-6.294101 0,-2.372595 0.39164,-3.805935 1.35168,-4.946869 1.43802,-1.708997 3.34952,-2.224927 6.10514,-1.647838 l 1.78735,0.374308 0.15762,-1.175141 c 0.0867,-0.646328 0.0981,-1.234696 0.0253,-1.307485 -0.36659,-0.366593 -3.94531,-0.550039 -5.50303,-0.282087 -4.51296,0.776298 -6.87515,3.946138 -6.91259,9.276021 -0.0207,2.947115 0.35564,4.440701 1.52601,6.056354 1.87274,2.58524 5.57073,3.437074 10.10035,2.326619 z m 24.44412,-0.101303 c 2.2264,-0.930252 3.27905,-2.487688 3.27738,-4.849042 -0.002,-2.431035 -0.67294,-3.24355 -3.94125,-4.770838 -1.5163,-0.708571 -3.01685,-1.548253 -3.33456,-1.86596 -0.78506,-0.785067 -0.73132,-2.112346 0.1258,-3.106881 0.67064,-0.778146 0.81984,-0.81574 3.19853,-0.805881 l 2.49507,0.01034 0.18185,-0.96936 c 0.10002,-0.533148 0.11043,-1.040782 0.0231,-1.128075 -0.32307,-0.323074 -5.0384,-0.212889 -6.07375,0.141927 -1.37692,0.471872 -3.05855,2.334016 -3.30786,3.662924 -0.50685,2.70176 0.506,4.187636 3.92688,5.760785 3.17626,1.460664 3.79815,2.02897 3.79815,3.470917 0,1.342504 -0.67743,2.114262 -2.23566,2.546961 -1.42613,0.39602 -1.69806,0.390049 -3.49779,-0.07679 -1.43407,-0.371993 -1.5034,-0.362877 -1.65942,0.218182 -0.0896,0.333518 -0.16461,0.898448 -0.16679,1.2554 -0.004,0.644255 0.15029,0.725068 2.03239,1.064876 1.22812,0.221733 4.01051,-0.08008 5.15789,-0.559482 z m 13.09488,-8.59e-4 c 3.32232,-1.385725 4.55786,-5.256434 2.46993,-7.737806 -0.47557,-0.565175 -1.80971,-1.405928 -3.40854,-2.147994 -1.44491,-0.670629 -2.81606,-1.446997 -3.047,-1.725262 -0.6328,-0.762478 -0.52687,-2.393882 0.20282,-3.123574 0.74293,-0.742928 3.16865,-1.036392 4.81322,-0.582304 l 1.08043,0.298321 v -1.245589 -1.245589 l -1.56721,-0.184195 c -0.86197,-0.101307 -2.25848,-0.0531 -3.10335,0.107128 -3.13901,0.5953 -4.63853,2.186044 -4.63853,4.920708 0,2.484942 0.91283,3.560643 4.14776,4.887858 2.58538,1.060718 3.39678,1.734885 3.59684,2.988487 0.4217,2.642489 -3.17837,3.93127 -6.91377,2.475042 -0.39366,-0.153468 -0.49712,0.05064 -0.58486,1.153882 -0.11407,1.434243 -0.1869,1.364232 1.7904,1.721228 1.22868,0.221835 4.01059,-0.08015 5.16186,-0.560341 z m -77.54162,-1.517175 0.71884,-1.963636 3.77061,-0.08075 3.77061,-0.08075 0.65844,2.044391 0.65844,2.04439 h 1.46931 c 1.38037,0 1.45897,-0.03962 1.2986,-0.654545 -0.0939,-0.36 -1.52439,-4.385455 -3.1789,-8.945455 l -3.0082,-8.290909 -1.58769,-0.08531 -1.58769,-0.08531 -3.22323,9.030762 -3.22323,9.030761 h 1.37262 1.37262 z M 110.22076,28 c 0.45337,-1.24 1.11808,-3.146544 1.47713,-4.236765 0.35905,-1.09022 0.69949,-1.935555 0.75652,-1.87852 0.057,0.05703 0.75934,1.963578 1.56068,4.236764 l 1.45699,4.133066 h -3.03782 -3.03781 z m 51.52469,7.490909 v -1.163636 h -3.35598 -3.35599 l 0.0833,-2.836364 0.0833,-2.836364 3.12727,-0.08257 3.12728,-0.08257 v -1.153794 -1.153795 h -3.21133 -3.21133 l 0.0841,-2.545454 0.084,-2.545455 3.27273,-0.08225 3.27272,-0.08225 V 19.772299 18.61819 h -4.65454 -4.65455 v 9.018182 9.018181 h 4.65455 4.65454 z"
         id="path8" />
      <path
         style="fill:#faeadb"
         d="M 4.2181818,52.217381 C 2.7461873,51.696676 1.0141575,49.865825 0.60728209,48.400461 0.1643704,46.805311 0.17332135,5.8170701 0.61693035,4.2191418 1.0383073,2.7012957 2.9922048,0.74739822 4.5100509,0.32602126 c 1.6567428,-0.4599368 197.9049691,-0.4599368 199.5617191,0 1.51784,0.42137696 3.47174,2.37527444 3.89312,3.89312054 0.45188,1.6277126 0.45188,42.5885492 0,44.2162622 -0.42138,1.517846 -2.37528,3.471743 -3.89312,3.89312 -0.84151,0.233614 -28.44469,0.319698 -99.92632,0.31163 C 19.756021,52.63063 5.2124609,52.569099 4.2181818,52.217381 Z M 203.90659,50.108639 c 0.54863,-0.279752 1.26863,-0.878239 1.6,-1.329971 0.59663,-0.813326 0.6025,-1.032187 0.6025,-22.451395 0,-21.4192085 -0.006,-21.6380691 -0.6025,-22.4513951 -0.33137,-0.4517328 -1.05137,-1.0502199 -1.6,-1.3299713 -0.94385,-0.4812838 -6.30127,-0.5086388 -99.61568,-0.5086388 -93.31441,0 -98.6718293,0.027355 -99.6156853,0.5086388 -0.5486264,0.2797514 -1.2686264,0.8782385 -1.6,1.3299713 -0.5966242,0.813326 -0.6024974,1.0321866 -0.6024974,22.4513951 0,21.419208 0.00587,21.638069 0.6024974,22.451395 0.3313736,0.451732 1.0513736,1.050219 1.6,1.329971 0.943856,0.481284 6.3012753,0.508639 99.6156853,0.508639 93.31441,0 98.67183,-0.02736 99.61568,-0.508639 z M 95.709091,26.618182 V 4.9454545 h 53.527269 53.52728 V 26.618182 48.290909 H 149.23636 95.709091 Z m 37.628819,9.706992 c 1.0992,-0.285068 1.11605,-0.31004 0.91951,-1.362328 -0.11012,-0.589565 -0.24732,-1.1198 -0.30488,-1.178299 -0.0576,-0.0585 -0.5236,0.03968 -1.03565,0.218182 -0.51204,0.178499 -1.72963,0.32239 -2.70576,0.319758 -3.22609,-0.0087 -5.16042,-1.81462 -5.5852,-5.214426 -0.25625,-2.050912 0.25617,-4.763911 1.15685,-6.12492 1.25242,-1.892535 2.74177,-2.291615 7.29924,-1.95587 0.78723,0.058 0.87984,-0.03271 1.04439,-1.022816 0.19977,-1.202104 0.42119,-1.081824 -2.78096,-1.510693 -3.05668,-0.409387 -6.59287,1.030496 -8.0912,3.294615 -1.81784,2.746954 -2.1918,7.892083 -0.78951,10.862751 1.70422,3.610295 5.79241,4.991697 10.87317,3.674046 z m 14.64859,-0.01493 c 1.17073,-0.287009 1.2156,-0.338772 1.05244,-1.214109 -0.2331,-1.250601 -0.45204,-1.421168 -1.37414,-1.070584 -1.12566,0.427974 -4.09261,0.373876 -5.215,-0.09509 -2.06685,-0.863583 -3.1011,-2.962742 -3.1011,-6.294101 0,-2.372595 0.39164,-3.805935 1.35168,-4.946869 1.43802,-1.708997 3.34952,-2.224927 6.10514,-1.647838 l 1.78735,0.374308 0.15762,-1.175141 c 0.0867,-0.646328 0.0981,-1.234696 0.0253,-1.307485 -0.36659,-0.366593 -3.94531,-0.550039 -5.50303,-0.282087 -4.51296,0.776298 -6.87515,3.946138 -6.91259,9.276021 -0.0207,2.947115 0.35564,4.440701 1.52601,6.056354 1.87274,2.58524 5.57073,3.437074 10.10035,2.326619 z m 24.44412,-0.101303 c 2.2264,-0.930252 3.27905,-2.487688 3.27738,-4.849042 -0.002,-2.431035 -0.67294,-3.24355 -3.94125,-4.770838 -1.5163,-0.708571 -3.01685,-1.548253 -3.33456,-1.86596 -0.78506,-0.785067 -0.73132,-2.112346 0.1258,-3.106881 0.67064,-0.778146 0.81984,-0.81574 3.19853,-0.805881 l 2.49507,0.01034 0.18185,-0.96936 c 0.10002,-0.533148 0.11043,-1.040782 0.0231,-1.128075 -0.32307,-0.323074 -5.0384,-0.212889 -6.07375,0.141927 -1.37692,0.471872 -3.05855,2.334016 -3.30786,3.662924 -0.50685,2.70176 0.506,4.187636 3.92688,5.760785 3.17626,1.460664 3.79815,2.02897 3.79815,3.470917 0,1.342504 -0.67743,2.114262 -2.23566,2.546961 -1.42613,0.39602 -1.69806,0.390049 -3.49779,-0.07679 -1.43407,-0.371993 -1.5034,-0.362877 -1.65942,0.218182 -0.0896,0.333518 -0.16461,0.898448 -0.16679,1.2554 -0.004,0.644255 0.15029,0.725068 2.03239,1.064876 1.22812,0.221733 4.01051,-0.08008 5.15789,-0.559482 z m 13.09488,-8.59e-4 c 3.32232,-1.385725 4.55786,-5.256434 2.46993,-7.737806 -0.47557,-0.565175 -1.80971,-1.405928 -3.40854,-2.147994 -1.44491,-0.670629 -2.81606,-1.446997 -3.047,-1.725262 -0.6328,-0.762478 -0.52687,-2.393882 0.20282,-3.123574 0.74293,-0.742928 3.16865,-1.036392 4.81322,-0.582304 l 1.08043,0.298321 v -1.245589 -1.245589 l -1.56721,-0.184195 c -0.86197,-0.101307 -2.25848,-0.0531 -3.10335,0.107128 -3.13901,0.5953 -4.63853,2.186044 -4.63853,4.920708 0,2.484942 0.91283,3.560643 4.14776,4.887858 2.58538,1.060718 3.39678,1.734885 3.59684,2.988487 0.4217,2.642489 -3.17837,3.93127 -6.91377,2.475042 -0.39366,-0.153468 -0.49712,0.05064 -0.58486,1.153882 -0.11407,1.434243 -0.1869,1.364232 1.7904,1.721228 1.22868,0.221835 4.01059,-0.08015 5.16186,-0.560341 z m -77.54162,-1.517175 0.71884,-1.963636 3.77061,-0.08075 3.77061,-0.08075 0.65844,2.044391 0.65844,2.04439 h 1.46931 c 1.38037,0 1.45897,-0.03962 1.2986,-0.654545 -0.0939,-0.36 -1.52439,-4.385455 -3.1789,-8.945455 l -3.0082,-8.290909 -1.58769,-0.08531 -1.58769,-0.08531 -3.22323,9.030762 -3.22323,9.030761 h 1.37262 1.37262 z M 110.22076,28 c 0.45337,-1.24 1.11808,-3.146544 1.47713,-4.236765 0.35905,-1.09022 0.69949,-1.935555 0.75652,-1.87852 0.057,0.05703 0.75934,1.963578 1.56068,4.236764 l 1.45699,4.133066 h -3.03782 -3.03781 z m 51.52469,7.490909 v -1.163636 h -3.35598 -3.35599 l 0.0833,-2.836364 0.0833,-2.836364 3.12727,-0.08257 3.12728,-0.08257 v -1.153794 -1.153795 h -3.21133 -3.21133 l 0.0841,-2.545454 0.084,-2.545455 3.27273,-0.08225 3.27272,-0.08225 V 19.772299 18.61819 h -4.65454 -4.65455 v 9.018182 9.018181 h 4.65455 4.65454 z M 24.161039,37.315562 c -0.738047,-0.260576 -1.87559,-1.038771 -2.649013,-1.812194 -1.908458,-1.908458 -2.457481,-3.634887 -2.457481,-7.727667 0,-3.033403 0.05125,-3.310228 0.951431,-5.138748 1.73319,-3.520607 4.662885,-5.304921 8.673182,-5.282351 5.384736,0.0303 8.419633,3.189788 8.773991,9.134175 0.314764,5.280178 -2.062218,9.392315 -6.289724,10.881114 -1.631139,0.574438 -5.302158,0.545955 -7.002386,-0.05433 z m 6.604776,-3.205422 c 0.652477,-0.337299 1.438431,-1.125647 1.961458,-1.967433 0.763597,-1.228975 0.88537,-1.723975 0.973837,-3.958597 0.07159,-1.808399 -0.03647,-2.968193 -0.370162,-3.97285 -1.755728,-5.286001 -8.597034,-5.041458 -10.366709,0.370558 -0.5202,1.590875 -0.459375,4.671558 0.127098,6.437263 1.116966,3.362869 4.507232,4.728372 7.674478,3.091059 z m 9.961458,-6.619231 V 17.454545 h 3.438108 c 6.628954,0 9.178947,1.697563 9.176768,6.109091 -0.002,4.079959 -2.514468,6.512087 -7.126592,6.898751 l -1.997375,0.167453 v 3.448716 3.448717 h -1.745455 -1.745454 z m 6.750404,-0.157097 c 1.567902,-0.435459 2.267777,-1.475022 2.267777,-3.368454 0,-1.302192 -0.136178,-1.708589 -0.834362,-2.489993 -0.74865,-0.837885 -1.032555,-0.946434 -2.763637,-1.056661 l -1.929273,-0.122847 v 3.476314 c 0,1.911973 0.08727,3.563587 0.193939,3.670253 0.287286,0.287286 1.837905,0.232348 3.065556,-0.108612 z m 8.958687,0.150535 V 17.44142 l 5.30909,0.07929 5.309091,0.07929 0.08867,1.381818 0.08867,1.381818 H 63.579583 59.92728 v 2.763637 2.763636 h 3.345454 3.345455 V 27.345455 28.8 H 63.272734 59.92728 v 2.900137 2.900137 l 3.563636,0.08168 3.563636,0.08168 0.08867,1.381819 0.08867,1.381818 H 61.834121 56.436364 Z M 71.050726,27.563636 71.127273,17.6 h 2.173304 2.173304 l 3.389225,5.692578 c 1.864073,3.130917 3.798533,6.469099 4.298799,7.418182 l 0.909574,1.725604 6.24e-4,-7.490909 6.24e-4,-7.49091 h 1.6 1.6 v 10.048601 10.0486 l -2.242493,-0.08496 -2.242493,-0.08496 -3.44599,-5.818182 c -1.895294,-3.2 -3.817574,-6.538181 -4.271733,-7.418181 l -0.825743,-1.6 0.157393,7.490909 0.157393,7.490909 H 72.76662 70.97418 Z"
         id="path7" />
      <path
         style="fill:#f5d0ab"
         d="M 4.2181818,52.217381 C 2.7461873,51.696676 1.0141575,49.865825 0.60728209,48.400461 0.1643704,46.805311 0.17332135,5.8170701 0.61693035,4.2191418 1.0383073,2.7012957 2.9922048,0.74739822 4.5100509,0.32602126 c 1.6567428,-0.4599368 197.9049691,-0.4599368 199.5617191,0 1.51784,0.42137696 3.47174,2.37527444 3.89312,3.89312054 0.45188,1.6277126 0.45188,42.5885492 0,44.2162622 -0.42138,1.517846 -2.37528,3.471743 -3.89312,3.89312 -0.84151,0.233614 -28.44469,0.319698 -99.92632,0.31163 C 19.756021,52.63063 5.2124609,52.569099 4.2181818,52.217381 Z M 203.90659,50.108639 c 0.54863,-0.279752 1.26863,-0.878239 1.6,-1.329971 0.59663,-0.813326 0.6025,-1.032187 0.6025,-22.451395 0,-21.4192085 -0.006,-21.6380691 -0.6025,-22.4513951 -0.33137,-0.4517328 -1.05137,-1.0502199 -1.6,-1.3299713 -0.94385,-0.4812838 -6.30127,-0.5086388 -99.61568,-0.5086388 -93.31441,0 -98.6718293,0.027355 -99.6156853,0.5086388 -0.5486264,0.2797514 -1.2686264,0.8782385 -1.6,1.3299713 -0.5966242,0.813326 -0.6024974,1.0321866 -0.6024974,22.4513951 0,21.419208 0.00587,21.638069 0.6024974,22.451395 0.3313736,0.451732 1.0513736,1.050219 1.6,1.329971 0.943856,0.481284 6.3012753,0.508639 99.6156853,0.508639 93.31441,0 98.67183,-0.02736 99.61568,-0.508639 z M 95.709091,26.618182 V 4.9454545 h 53.527269 53.52728 V 26.618182 48.290909 H 149.23636 95.709091 Z m 37.745459,9.729585 c 0.98758,-0.346747 1.05649,-0.51986 0.77239,-1.940359 -0.17213,-0.860643 -0.17881,-0.863266 -1.23637,-0.485496 -1.30298,0.465439 -3.79382,0.513779 -4.8989,0.09507 -1.12232,-0.425233 -2.07155,-1.360974 -2.78384,-2.744258 -0.86917,-1.687959 -0.86534,-5.629245 0.007,-7.308861 0.71026,-1.367397 2.09721,-2.641889 3.16727,-2.910455 0.67859,-0.170317 4.08593,-0.0205 5.02706,0.22104 0.52961,0.135923 0.9973,-2.112157 0.50381,-2.421724 -0.67768,-0.42511 -4.06604,-0.587834 -5.64354,-0.271028 -2.94632,0.591706 -4.89843,2.153143 -6.04658,4.836483 -0.62286,1.455675 -0.91064,6.243623 -0.47238,7.859018 0.74721,2.754125 2.67994,4.684053 5.42216,5.414284 1.12332,0.299133 4.95818,0.08591 6.18182,-0.343717 z m 14.81468,0.0076 c 0.86146,-0.302518 0.91265,-0.396568 0.75882,-1.394407 -0.0907,-0.588505 -0.20686,-1.11954 -0.25808,-1.180077 -0.0512,-0.06054 -0.67976,0.03764 -1.39674,0.218181 -3.19381,0.804211 -5.66358,0.08711 -7.082,-2.056251 -0.74015,-1.118445 -0.80032,-1.429692 -0.80032,-4.139708 0,-3.345646 0.54914,-4.822314 2.24145,-6.027342 1.09116,-0.776979 4.07022,-1.082813 5.82577,-0.598081 l 1.05512,0.291333 0.19776,-1.170483 c 0.24168,-1.430503 0.0477,-1.580977 -2.37156,-1.840062 -5.88513,-0.630244 -9.56015,2.39456 -10.17264,8.372823 -0.21207,2.069912 0.23245,4.732591 1.06319,6.368519 0.85874,1.691057 2.40833,2.819673 4.77909,3.480756 1.09977,0.306669 4.93776,0.104057 6.16014,-0.325201 z m 23.30054,0.146593 c 3.16249,-0.93916 4.90782,-3.684302 4.14457,-6.518802 -0.39974,-1.48452 -1.49308,-2.41615 -4.40352,-3.752227 -3.44462,-1.581298 -4.23929,-2.888137 -2.78461,-4.579299 0.77978,-0.906545 2.86452,-1.252863 4.62152,-0.76773 0.95661,0.264131 1.07057,0.233117 1.22237,-0.332649 0.43887,-1.635674 0.27333,-1.878922 -1.42287,-2.090848 -4.89788,-0.61195 -8.21728,1.743198 -7.92335,5.621699 0.153,2.018926 1.3077,3.251057 4.08143,4.355125 2.62849,1.046257 3.69469,2.016667 3.69469,3.36276 0,0.783041 -0.20864,1.196623 -0.89505,1.774193 -0.75753,0.637423 -1.17922,0.753133 -2.7447,0.753133 -1.0173,0 -2.20731,-0.135983 -2.64445,-0.302183 -0.98842,-0.375799 -1.31751,0.02289 -1.20991,1.465819 0.0682,0.915142 0.17897,1.036386 1.09411,1.198068 1.85339,0.327446 3.65699,0.262186 5.16977,-0.187059 z m 13.38182,0 c 0.82145,-0.243946 1.88308,-0.771305 2.35917,-1.17191 1.14769,-0.965722 1.8967,-2.967301 1.71468,-4.582177 -0.22925,-2.033914 -0.93356,-2.783351 -3.93295,-4.184974 -3.19925,-1.495017 -3.85613,-2.07162 -3.85613,-3.384875 0,-1.934271 2.56623,-3.047073 5.29153,-2.294583 l 1.05329,0.290828 0.11008,-1.154314 c 0.0605,-0.634873 0.0128,-1.214411 -0.106,-1.287861 -0.69376,-0.428766 -4.04536,-0.439165 -5.49736,-0.01706 -2.82895,0.822398 -4.46038,3.413587 -3.76804,5.984739 0.46493,1.726642 1.14965,2.35976 4.10765,3.798107 3.29014,1.599853 3.97908,2.376003 3.47222,3.91178 -0.50265,1.52306 -1.60724,2.009502 -4.19713,1.848341 -1.13643,-0.07072 -2.27715,-0.22199 -2.53493,-0.336163 -0.37895,-0.167842 -0.5007,0.03105 -0.63587,1.038829 -0.0919,0.685529 -0.11157,1.302023 -0.0436,1.369985 0.21892,0.218926 2.27318,0.546961 3.64083,0.581387 0.73096,0.0184 2.00111,-0.166137 2.82257,-0.410082 z m -76.96728,-1.811009 0.71928,-1.963636 h 3.73253 3.73252 l 0.6301,1.890909 0.63009,1.890909 1.64724,0.08719 1.64723,0.08719 -0.82913,-2.269004 c -0.45602,-1.247952 -1.92518,-5.31264 -3.2648,-9.03264 l -2.43567,-6.763636 h -1.63249 -1.63248 l -3.19963,9.018182 -3.19963,9.018181 h 1.36778 1.36778 z m 1.94286,-5.818182 c 0.29527,-0.76 0.96607,-2.680319 1.49068,-4.267377 l 0.95382,-2.885558 1.41416,4.022795 c 0.77779,2.212537 1.41417,4.132857 1.41417,4.267377 0,0.13452 -1.30718,0.244581 -2.90485,0.244581 h -2.90484 z m 51.81828,6.618182 v -1.163636 h -3.2 -3.2 V 31.418182 28.509091 H 158.4 161.45455 V 27.345455 26.181818 H 158.4 155.34545 v -2.618182 -2.618181 h 3.2 3.2 v -1.163637 -1.163636 h -4.65454 -4.65455 v 9.018182 9.018181 h 4.65455 4.65454 z M 24.359875,37.296992 c -2.041212,-0.73216 -3.260935,-1.859276 -4.303257,-3.976533 -1.893375,-3.84599 -1.396291,-9.373193 1.130289,-12.567965 1.66706,-2.107938 3.681392,-3.088204 6.668024,-3.244962 2.817199,-0.147865 4.554032,0.256119 6.187099,1.439106 3.294482,2.386511 4.470765,8.82725 2.438984,13.35466 -0.967589,2.156075 -3.277019,4.377467 -5.249781,5.049655 -1.787142,0.60894 -5.095672,0.582958 -6.871358,-0.05396 z M 30.4,34.361969 c 2.334588,-1.072047 3.421984,-3.282706 3.397749,-6.907576 -0.03214,-4.807031 -2.319364,-7.394187 -6.206753,-7.020658 -1.814191,0.174321 -3.32778,1.324828 -4.301572,3.269706 -0.908072,1.81362 -1.018568,5.39325 -0.22975,7.44298 1.220513,3.171485 4.401606,4.565014 7.340326,3.215548 z M 40.796181,27.563636 40.872727,17.6 43.902331,17.51657 c 3.683053,-0.101427 5.725578,0.287149 7.227207,1.374924 1.478455,1.070987 2.203519,2.623179 2.184184,4.675826 -0.03794,4.028164 -2.578527,6.453702 -7.213119,6.886487 l -1.882421,0.175783 v 3.448842 3.448843 h -1.749274 -1.749273 z m 7.045081,-0.339338 c 1.305229,-0.545359 1.951977,-1.598593 1.976469,-3.218694 0.03723,-2.462757 -1.295543,-3.641968 -4.116241,-3.641968 H 44.218182 V 24 27.636364 h 1.318434 c 0.725139,0 1.76223,-0.18543 2.304646,-0.412066 z m 8.595102,0.266611 V 17.454545 h 5.236363 5.236364 v 1.454546 1.454545 h -3.490909 -3.490909 v 2.763637 2.763636 h 3.345454 3.345455 V 27.345455 28.8 h -3.345455 -3.345454 v 2.909091 2.909091 h 3.490909 3.490909 v 1.454545 1.454546 H 61.672727 56.436364 Z M 71.050726,27.563636 71.127273,17.6 h 2.167993 2.167993 l 3.028292,5.090909 c 1.665561,2.8 3.635419,6.216318 4.377462,7.591817 l 1.349169,2.500908 -0.08629,-7.664544 -0.08629,-7.664545 h 1.613562 1.613562 V 27.490909 37.527273 H 85.101074 82.92942 L 80.0493,32.654545 c -1.584066,-2.68 -3.558815,-6.050909 -4.388332,-7.490909 l -1.508212,-2.618181 0.200333,7.490909 0.200333,7.490909 H 72.763801 70.97418 Z"
         id="path6" />
      <path
         style="fill:#f0bc8a"
         d="M 4.3666241,52.271854 C 2.9756187,51.82888 1.0843215,49.860618 0.64867984,48.402612 0.13412569,46.680502 0.13412569,5.9740433 0.64867984,4.251933 1.110475,2.7063966 2.9973057,0.81956587 4.542842,0.35777075 c 1.750263,-0.52296593 197.745868,-0.52296593 199.496138,0 1.54553,0.46179512 3.43236,2.34862585 3.89416,3.89416225 0.51455,1.7221103 0.51455,42.428569 0,44.150679 -0.4618,1.545537 -2.34863,3.432368 -3.89416,3.894163 -1.64617,0.491863 -198.1265819,0.46734 -199.6723559,-0.02492 z M 204.14811,50.037935 c 0.52147,-0.317939 1.20825,-1.004723 1.52619,-1.526185 0.56288,-0.923206 0.57807,-1.506015 0.57807,-22.184477 0,-20.6784624 -0.0152,-21.2612718 -0.57807,-22.1844774 -0.31794,-0.5214624 -1.00472,-1.2082458 -1.52619,-1.5261853 -0.94115,-0.5738305 -1.67381,-0.5780718 -99.8572,-0.5780718 -98.183397,0 -98.9160481,0.00424 -99.8572053,0.5780718 C 3.9122423,2.9345498 3.2254589,3.6213332 2.9075194,4.1427956 2.3446341,5.0660012 2.3294476,5.6488106 2.3294476,26.327273 c 0,20.678462 0.015186,21.261271 0.5780718,22.184477 0.3179395,0.521462 1.0047229,1.208246 1.5261853,1.526185 0.9411572,0.573831 1.6738083,0.578072 99.8572053,0.578072 98.18339,0 98.91605,-0.0042 99.8572,-0.578072 z M 95.709091,26.618182 V 4.9454545 h 53.527269 53.52728 V 26.618182 48.290909 H 149.23636 95.709091 Z m 38.045879,9.741913 c 0.66104,-0.24291 0.9156,-0.497834 0.82704,-0.828235 -0.0704,-0.262523 -0.2028,-0.816386 -0.2943,-1.230807 l -0.16636,-0.753493 -1.67886,0.435557 c -2.98638,0.774775 -5.61723,-0.08544 -6.88142,-2.250019 -0.71063,-1.216764 -0.98495,-5.102916 -0.48968,-6.936918 0.42646,-1.57921 1.78785,-3.135327 3.13069,-3.578505 1.00584,-0.331956 3.85248,-0.238557 5.21106,0.170975 0.54263,0.163572 0.6327,0.03999 0.78322,-1.074639 0.0935,-0.692706 0.0592,-1.371356 -0.0763,-1.50811 -0.13552,-0.136755 -1.35497,-0.317806 -2.70989,-0.402337 -5.70225,-0.35575 -9.04266,2.357811 -9.84086,7.994166 -0.68497,4.836712 1.16966,8.696657 4.85712,10.108927 1.3289,0.508955 5.78734,0.419792 7.32858,-0.146562 z m 14.02685,0.196566 1.30909,-0.341971 -0.0848,-1.295195 c -0.0466,-0.712357 -0.11211,-1.321039 -0.14546,-1.352626 -0.0333,-0.03159 -0.84608,0.147147 -1.80608,0.397186 -3.15366,0.821396 -5.6842,-0.02958 -6.8879,-2.316279 -0.53815,-1.022332 -0.65853,-1.722223 -0.66628,-3.873723 -0.008,-2.248285 0.0962,-2.831193 0.72495,-4.053047 1.23029,-2.390683 4.12563,-3.385171 7.24824,-2.489617 0.54835,0.157263 1.05502,0.227907 1.12594,0.156986 0.0709,-0.07092 0.22441,-0.650989 0.34109,-1.289039 0.25929,-1.417943 0.14415,-1.481697 -3.04968,-1.688687 -2.72768,-0.176779 -4.18048,0.154162 -6.01705,1.370653 -2.64612,1.752716 -3.89974,4.837573 -3.65849,9.002648 0.23114,3.990455 1.74315,6.400016 4.75371,7.575556 1.64565,0.642582 4.76234,0.732777 6.81274,0.197155 z m 24.1816,-0.06004 c 2.64513,-0.932664 4.36761,-3.652406 3.89984,-6.157732 -0.2948,-1.578902 -2.12874,-3.232587 -4.70464,-4.242229 -2.42511,-0.950535 -3.12953,-1.616049 -3.12953,-2.956671 0,-2.169792 2.1263,-2.894425 5.86182,-1.99768 0.60512,0.145264 0.65454,0.05825 0.65454,-1.152374 0,-1.549098 -0.18668,-1.663325 -2.7147,-1.661039 -2.24114,0.002 -3.84726,0.430251 -5.06742,1.351074 -1.29256,0.975463 -1.81823,2.116551 -1.81596,3.941948 0.003,2.506834 1.09687,3.663742 5.0032,5.292083 2.235,0.931649 2.52571,1.203839 2.74786,2.572803 0.12653,0.779703 0.009,1.170187 -0.5466,1.816118 -0.58203,0.676648 -1.00005,0.847091 -2.35264,0.959258 -0.90466,0.07502 -2.25186,-0.01645 -2.99377,-0.20326 -0.7419,-0.186814 -1.38657,-0.30104 -1.43258,-0.253836 -0.046,0.0472 -0.12533,0.66971 -0.17626,1.383345 -0.0834,1.168989 -0.0212,1.317406 0.62814,1.498275 1.34692,0.375176 4.84256,0.266934 6.1387,-0.190083 z m 13.08408,0.11775 c 2.57495,-0.862125 4.04067,-2.75701 4.04232,-5.225895 0.002,-2.504829 -0.68071,-3.29388 -4.43468,-5.127925 -2.47795,-1.210633 -3.15135,-1.671001 -3.29781,-2.254546 -0.27442,-1.093359 0.0853,-2.118915 0.93937,-2.678557 0.80221,-0.525626 3.14065,-0.684138 4.51423,-0.305998 0.72816,0.200456 0.78655,0.142376 0.97434,-0.969164 0.10987,-0.65032 0.11251,-1.269661 0.006,-1.376314 -0.36563,-0.365631 -4.38928,-0.405889 -5.68539,-0.05689 -1.70186,0.458263 -3.65198,2.37456 -3.93122,3.863026 -0.51983,2.770929 0.85149,4.687011 4.38246,6.123421 2.5666,1.044099 3.33394,1.741011 3.33394,3.027938 0,0.542628 -0.12815,1.226039 -0.28477,1.518691 -0.56762,1.060606 -3.59363,1.523955 -5.80698,0.889177 -0.54834,-0.157264 -1.05978,-0.223139 -1.13653,-0.14639 -0.0768,0.07675 -0.15088,0.688162 -0.16473,1.358693 -0.0219,1.061231 0.069,1.246003 0.7021,1.426482 1.17199,0.334118 4.77416,0.293612 5.8475,-0.06575 z M 107.49004,36.29091 c 0.0695,-0.2 0.40205,-1.116364 0.73905,-2.036364 l 0.61271,-1.672727 h 3.59869 3.59868 l 0.65586,2.036364 0.65585,2.036363 h 1.6882 c 0.92851,0 1.68819,-0.04577 1.68819,-0.101709 0,-0.05594 -1.32291,-3.754122 -2.93981,-8.218182 -1.6169,-4.46406 -3.0697,-8.476472 -3.22846,-8.916472 -0.2697,-0.747492 -0.3993,-0.8 -1.97452,-0.8 -1.33463,0 -1.72799,0.106064 -1.88803,0.509091 -0.34955,0.880214 -4.53852,12.614602 -5.40017,15.127272 l -0.82302,2.4 h 1.44523 c 0.89487,0 1.49333,-0.138476 1.57155,-0.363636 z m 2.18269,-6.216438 c 0,-0.09904 0.61099,-1.945049 1.35775,-4.102239 l 1.35775,-3.922165 1.21979,3.447694 c 0.67089,1.896231 1.31236,3.742239 1.42549,4.102239 0.20349,0.647511 0.17579,0.654545 -2.57754,0.654545 -1.53078,0 -2.78324,-0.08103 -2.78324,-0.180074 z m 52.30763,5.343711 -0.0894,-1.236364 -3.27273,-0.08225 -3.27273,-0.08226 V 31.2632 28.509091 h 3.0545 3.05455 V 27.345455 26.181818 H 158.4 155.34545 v -2.618182 -2.618181 h 3.34546 3.34545 v -1.163637 -1.163636 h -4.8 -4.8 v 9.018182 9.018181 h 4.81673 4.81673 z M 24.186749,37.18915 c -1.983199,-0.761769 -3.612795,-2.432906 -4.443374,-4.556641 -0.514622,-1.315854 -0.649255,-2.270294 -0.663719,-4.705236 -0.0168,-2.827705 0.04838,-3.194971 0.877706,-4.945455 1.019959,-2.152868 2.574713,-3.796878 4.479002,-4.736133 C 25.524403,17.70903 26.23668,17.6 28.654545,17.6 c 2.686065,0 3.029509,0.06669 4.479779,0.869863 1.770888,0.980737 3.24522,2.936688 3.839519,5.093773 0.611989,2.221294 0.459379,6.274979 -0.311094,8.263413 -1.87786,4.846367 -7.513162,7.268382 -12.476,5.362101 z m 6.268029,-2.846007 c 3.28857,-1.493037 4.525329,-6.721287 2.589953,-10.948706 -1.001546,-2.187663 -2.138598,-2.885346 -4.702409,-2.885346 -2.513427,0 -3.789722,0.73304 -4.933735,2.833691 -1.440148,2.644418 -1.193991,7.226848 0.517306,9.630144 1.270761,1.784618 4.242435,2.408284 6.528885,1.370217 z M 40.727273,27.657296 V 17.78732 l 1.647503,-0.205842 c 2.827966,-0.353331 6.143568,0.04679 7.952497,0.959685 2.247737,1.134349 2.998936,2.600996 2.828888,5.523143 -0.147084,2.527516 -0.991044,4.025817 -2.895102,5.139739 -1.285083,0.751805 -4.764192,1.47893 -5.579443,1.166089 -0.40887,-0.156898 -0.463434,0.253966 -0.463434,3.489651 v 3.667488 h -1.745455 -1.745454 z m 7.593343,-0.684961 c 1.371029,-0.921018 1.95538,-2.625354 1.463278,-4.267844 -0.487268,-1.626355 -1.671865,-2.338323 -3.892985,-2.339767 l -1.672727,-0.0011 V 24 27.636364 h 1.556979 c 1.138596,0 1.822598,-0.178435 2.545455,-0.664029 z m 8.115748,0.664029 v -9.890909 h 5.236363 5.236364 v 1.30909 1.309091 h -3.636364 -3.636363 v 2.763637 2.763636 h 3.490909 3.490909 V 27.345455 28.8 h -3.490909 -3.490909 v 2.909091 2.909091 h 3.636363 3.636364 v 1.454545 1.454546 h -5.236364 -5.236363 z m 14.545454,0 v -9.890909 h 2.258225 2.258226 l 3.050865,5.146977 c 1.677976,2.830838 3.647416,6.233206 4.376533,7.560818 l 1.325668,2.413841 -0.126313,-7.560818 -0.126312,-7.560818 h 1.637008 1.637009 v 9.890909 9.890909 h -2.14852 -2.148519 L 79.34073,31.345455 c -1.999227,-3.4 -3.971753,-6.836364 -4.38339,-7.636364 l -0.748432,-1.454546 -0.01354,7.636364 -0.01354,7.636364 h -1.6 -1.6 z"
         id="path5" />
      <path
         style="fill:#f6b16e"
         d="M 4.3666241,52.271854 C 2.9756187,51.82888 1.0843215,49.860618 0.64867984,48.402612 0.13412569,46.680502 0.13412569,5.9740433 0.64867984,4.251933 1.110475,2.7063966 2.9973057,0.81956587 4.542842,0.35777075 c 1.750263,-0.52296593 197.745868,-0.52296593 199.496138,0 1.54553,0.46179512 3.43236,2.34862585 3.89416,3.89416225 0.51455,1.7221103 0.51455,42.428569 0,44.150679 -0.4618,1.545537 -2.34863,3.432368 -3.89416,3.894163 -1.64617,0.491863 -198.1265819,0.46734 -199.6723559,-0.02492 z M 204.14811,50.037935 c 0.52147,-0.317939 1.20825,-1.004723 1.52619,-1.526185 0.56288,-0.923206 0.57807,-1.506015 0.57807,-22.184477 0,-20.6784624 -0.0152,-21.2612718 -0.57807,-22.1844774 -0.31794,-0.5214624 -1.00472,-1.2082458 -1.52619,-1.5261853 -0.94115,-0.5738305 -1.67381,-0.5780718 -99.8572,-0.5780718 -98.183397,0 -98.9160481,0.00424 -99.8572053,0.5780718 C 3.9122423,2.9345498 3.2254589,3.6213332 2.9075194,4.1427956 2.3446341,5.0660012 2.3294476,5.6488106 2.3294476,26.327273 c 0,20.678462 0.015186,21.261271 0.5780718,22.184477 0.3179395,0.521462 1.0047229,1.208246 1.5261853,1.526185 0.9411572,0.573831 1.6738083,0.578072 99.8572053,0.578072 98.18339,0 98.91605,-0.0042 99.8572,-0.578072 z M 95.709091,26.618182 V 4.9454545 h 53.527269 53.52728 V 26.618182 48.290909 H 149.23636 95.709091 Z m 38.045879,9.741913 c 0.66104,-0.24291 0.9156,-0.497834 0.82704,-0.828235 -0.0704,-0.262523 -0.2028,-0.816386 -0.2943,-1.230807 l -0.16636,-0.753493 -1.67886,0.435557 c -2.98638,0.774775 -5.61723,-0.08544 -6.88142,-2.250019 -0.71063,-1.216764 -0.98495,-5.102916 -0.48968,-6.936918 0.42646,-1.57921 1.78785,-3.135327 3.13069,-3.578505 1.00584,-0.331956 3.85248,-0.238557 5.21106,0.170975 0.54263,0.163572 0.6327,0.03999 0.78322,-1.074639 0.0935,-0.692706 0.0592,-1.371356 -0.0763,-1.50811 -0.13552,-0.136755 -1.35497,-0.317806 -2.70989,-0.402337 -5.70225,-0.35575 -9.04266,2.357811 -9.84086,7.994166 -0.68497,4.836712 1.16966,8.696657 4.85712,10.108927 1.3289,0.508955 5.78734,0.419792 7.32858,-0.146562 z m 14.02685,0.196566 1.30909,-0.341971 -0.0848,-1.295195 c -0.0466,-0.712357 -0.11211,-1.321039 -0.14546,-1.352626 -0.0333,-0.03159 -0.84608,0.147147 -1.80608,0.397186 -3.15366,0.821396 -5.6842,-0.02958 -6.8879,-2.316279 -0.53815,-1.022332 -0.65853,-1.722223 -0.66628,-3.873723 -0.008,-2.248285 0.0962,-2.831193 0.72495,-4.053047 1.23029,-2.390683 4.12563,-3.385171 7.24824,-2.489617 0.54835,0.157263 1.05502,0.227907 1.12594,0.156986 0.0709,-0.07092 0.22441,-0.650989 0.34109,-1.289039 0.25929,-1.417943 0.14415,-1.481697 -3.04968,-1.688687 -2.72768,-0.176779 -4.18048,0.154162 -6.01705,1.370653 -2.64612,1.752716 -3.89974,4.837573 -3.65849,9.002648 0.23114,3.990455 1.74315,6.400016 4.75371,7.575556 1.64565,0.642582 4.76234,0.732777 6.81274,0.197155 z m 24.1816,-0.06004 c 2.64513,-0.932664 4.36761,-3.652406 3.89984,-6.157732 -0.2948,-1.578902 -2.12874,-3.232587 -4.70464,-4.242229 -2.42511,-0.950535 -3.12953,-1.616049 -3.12953,-2.956671 0,-2.169792 2.1263,-2.894425 5.86182,-1.99768 0.60512,0.145264 0.65454,0.05825 0.65454,-1.152374 0,-1.549098 -0.18668,-1.663325 -2.7147,-1.661039 -2.24114,0.002 -3.84726,0.430251 -5.06742,1.351074 -1.29256,0.975463 -1.81823,2.116551 -1.81596,3.941948 0.003,2.506834 1.09687,3.663742 5.0032,5.292083 2.235,0.931649 2.52571,1.203839 2.74786,2.572803 0.12653,0.779703 0.009,1.170187 -0.5466,1.816118 -0.58203,0.676648 -1.00005,0.847091 -2.35264,0.959258 -0.90466,0.07502 -2.25186,-0.01645 -2.99377,-0.20326 -0.7419,-0.186814 -1.38657,-0.30104 -1.43258,-0.253836 -0.046,0.0472 -0.12533,0.66971 -0.17626,1.383345 -0.0834,1.168989 -0.0212,1.317406 0.62814,1.498275 1.34692,0.375176 4.84256,0.266934 6.1387,-0.190083 z m 13.08408,0.11775 c 2.57495,-0.862125 4.04067,-2.75701 4.04232,-5.225895 0.002,-2.504829 -0.68071,-3.29388 -4.43468,-5.127925 -2.47795,-1.210633 -3.15135,-1.671001 -3.29781,-2.254546 -0.27442,-1.093359 0.0853,-2.118915 0.93937,-2.678557 0.80221,-0.525626 3.14065,-0.684138 4.51423,-0.305998 0.72816,0.200456 0.78655,0.142376 0.97434,-0.969164 0.10987,-0.65032 0.11251,-1.269661 0.006,-1.376314 -0.36563,-0.365631 -4.38928,-0.405889 -5.68539,-0.05689 -1.70186,0.458263 -3.65198,2.37456 -3.93122,3.863026 -0.51983,2.770929 0.85149,4.687011 4.38246,6.123421 2.5666,1.044099 3.33394,1.741011 3.33394,3.027938 0,0.542628 -0.12815,1.226039 -0.28477,1.518691 -0.56762,1.060606 -3.59363,1.523955 -5.80698,0.889177 -0.54834,-0.157264 -1.05978,-0.223139 -1.13653,-0.14639 -0.0768,0.07675 -0.15088,0.688162 -0.16473,1.358693 -0.0219,1.061231 0.069,1.246003 0.7021,1.426482 1.17199,0.334118 4.77416,0.293612 5.8475,-0.06575 z M 107.49004,36.29091 c 0.0695,-0.2 0.40205,-1.116364 0.73905,-2.036364 l 0.61271,-1.672727 h 3.59869 3.59868 l 0.65586,2.036364 0.65585,2.036363 h 1.6882 c 0.92851,0 1.68819,-0.04577 1.68819,-0.101709 0,-0.05594 -1.32291,-3.754122 -2.93981,-8.218182 -1.6169,-4.46406 -3.0697,-8.476472 -3.22846,-8.916472 -0.2697,-0.747492 -0.3993,-0.8 -1.97452,-0.8 -1.33463,0 -1.72799,0.106064 -1.88803,0.509091 -0.34955,0.880214 -4.53852,12.614602 -5.40017,15.127272 l -0.82302,2.4 h 1.44523 c 0.89487,0 1.49333,-0.138476 1.57155,-0.363636 z m 2.18269,-6.216438 c 0,-0.09904 0.61099,-1.945049 1.35775,-4.102239 l 1.35775,-3.922165 1.21979,3.447694 c 0.67089,1.896231 1.31236,3.742239 1.42549,4.102239 0.20349,0.647511 0.17579,0.654545 -2.57754,0.654545 -1.53078,0 -2.78324,-0.08103 -2.78324,-0.180074 z m 52.30763,5.343711 -0.0894,-1.236364 -3.27273,-0.08225 -3.27273,-0.08226 V 31.2632 28.509091 h 3.0545 3.05455 V 27.345455 26.181818 H 158.4 155.34545 v -2.618182 -2.618181 h 3.34546 3.34545 v -1.163637 -1.163636 h -4.8 -4.8 v 9.018182 9.018181 h 4.81673 4.81673 z M 24.436364,37.267047 c -2.146854,-0.760813 -4.05733,-2.81107 -4.807588,-5.159335 -0.783564,-2.45251 -0.729833,-6.405534 0.116715,-8.586867 1.399645,-3.606517 4.364717,-5.772528 8.218619,-6.003774 2.819312,-0.169167 4.825314,0.453282 6.53263,2.027031 1.586413,1.462304 2.325861,3.067962 2.720909,5.908252 0.708331,5.092709 -1.27202,9.501136 -5.112072,11.379899 -2.188987,1.070971 -5.365836,1.251078 -7.669213,0.434794 z m 5.726516,-2.667372 c 2.026137,-0.765528 3.51396,-3.085019 3.775517,-5.885965 0.336435,-3.602812 -1.066046,-7.020993 -3.256181,-7.93609 -2.340297,-0.977839 -5.517756,-0.217225 -6.837983,1.636863 -2.561384,3.597131 -1.553472,10.349534 1.790759,11.997009 1.122264,0.552863 3.320838,0.644238 4.527888,0.188183 z m 10.564393,-6.963311 v -9.890909 l 1.963636,-0.06533 c 5.060048,-0.168353 7.118463,0.210203 8.701698,1.600302 1.329547,1.167358 1.845511,2.387956 1.837368,4.346596 -0.01665,4.004884 -2.970151,6.627525 -7.463615,6.627525 h -1.839087 v 3.636364 3.636364 h -1.6 -1.6 z m 7.424464,-0.458843 c 1.04256,-0.494727 1.884627,-1.905793 1.884627,-3.158102 0,-0.960815 -0.639383,-2.518832 -1.237103,-3.014512 -0.549018,-0.455291 -3.156203,-0.901437 -4.153606,-0.710771 -0.717836,0.137223 -0.718382,0.140065 -0.718382,3.739777 v 3.602451 h 1.628762 c 0.895819,0 2.063886,-0.20648 2.595702,-0.458843 z m 8.284627,0.458843 v -9.890909 h 5.236363 5.236364 v 1.30909 1.309091 h -3.636364 -3.636363 v 2.763637 2.763636 h 3.490909 3.490909 v 1.299859 1.299859 L 63.2,28.572586 l -3.418182,0.08196 v 3.054546 3.054545 l 3.563636,0.08168 3.563637,0.08168 v 1.300137 1.300137 h -5.236364 -5.236363 z m 14.836363,0 v -9.890909 l 2.109091,0.0083 2.109091,0.0083 3.522681,6.028072 c 1.937475,3.315439 3.930643,6.748072 4.429263,7.628072 l 0.906582,1.6 -0.185041,-7.636364 -0.185041,-7.636363 h 1.646687 1.646687 v 9.890909 9.890909 h -2.13352 -2.133519 L 80.13549,32.654545 c -1.578609,-2.68 -3.563979,-6.116347 -4.411935,-7.636326 L 74.181818,22.25462 v 7.636326 7.636327 h -1.454545 -1.454546 z"
         id="path4" />
      <path
         style="fill:#a5a5a5"
         d="M 4.3666241,52.271854 C 2.9756187,51.82888 1.0843215,49.860618 0.64867984,48.402612 0.13412569,46.680502 0.13412569,5.9740433 0.64867984,4.251933 1.110475,2.7063966 2.9973057,0.81956587 4.542842,0.35777075 c 1.750263,-0.52296593 197.745868,-0.52296593 199.496138,0 1.54553,0.46179512 3.43236,2.34862585 3.89416,3.89416225 0.51455,1.7221103 0.51455,42.428569 0,44.150679 -0.4618,1.545537 -2.34863,3.432368 -3.89416,3.894163 -1.64617,0.491863 -198.1265819,0.46734 -199.6723559,-0.02492 z M 204.14811,50.037935 c 0.52147,-0.317939 1.20825,-1.004723 1.52619,-1.526185 0.56288,-0.923206 0.57807,-1.506015 0.57807,-22.184477 0,-20.6784624 -0.0152,-21.2612718 -0.57807,-22.1844774 -0.31794,-0.5214624 -1.00472,-1.2082458 -1.52619,-1.5261853 -0.94115,-0.5738305 -1.67381,-0.5780718 -99.8572,-0.5780718 -98.183397,0 -98.9160481,0.00424 -99.8572053,0.5780718 C 3.9122423,2.9345498 3.2254589,3.6213332 2.9075194,4.1427956 2.3446341,5.0660012 2.3294476,5.6488106 2.3294476,26.327273 c 0,20.678462 0.015186,21.261271 0.5780718,22.184477 0.3179395,0.521462 1.0047229,1.208246 1.5261853,1.526185 0.9411572,0.573831 1.6738083,0.578072 99.8572053,0.578072 98.18339,0 98.91605,-0.0042 99.8572,-0.578072 z M 95.709091,26.618182 V 4.9454545 h 53.527269 53.52728 V 26.618182 48.290909 H 149.23636 95.709091 Z m 37.672729,9.928611 c 1.12937,-0.343525 1.16074,-0.38784 1.06541,-1.504916 -0.054,-0.633032 -0.18494,-1.239904 -0.29091,-1.348603 -0.10598,-0.108699 -0.91268,-0.0049 -1.79268,0.230665 -2.89524,0.775019 -5.26354,0.06535 -6.61943,-1.983534 -0.73832,-1.115683 -0.79876,-1.428717 -0.79876,-4.137342 0,-3.44372 0.57705,-4.903179 2.37893,-6.016805 1.1648,-0.719886 3.55676,-0.917866 5.66686,-0.46904 l 1.06396,0.226309 0.20269,-1.199661 c 0.13094,-0.775061 0.0838,-1.318492 -0.13306,-1.535401 -0.21374,-0.213742 -1.51965,-0.335738 -3.59392,-0.335738 -3.68523,0 -4.81791,0.397847 -6.72588,2.362414 -2.55926,2.635194 -3.20645,8.655705 -1.32527,12.328495 1.29109,2.520717 3.74231,3.759648 7.41115,3.745855 1.28,-0.0048 2.85091,-0.168027 3.49091,-0.362698 z m 14.54545,-0.0037 c 1.13734,-0.349517 1.16232,-0.385952 1.10516,-1.611875 -0.0322,-0.689852 -0.0978,-1.293593 -0.14584,-1.341647 -0.0481,-0.04805 -0.8072,0.102773 -1.68698,0.335172 -3.10694,0.820712 -5.62566,-0.08157 -6.95633,-2.491965 -0.97589,-1.767758 -1.02401,-5.674629 -0.092,-7.468959 1.30881,-2.519703 3.46418,-3.40965 6.68924,-2.761965 0.89993,0.180732 1.73022,0.229695 1.84508,0.108806 0.11486,-0.120889 0.25305,-0.73608 0.30707,-1.367092 0.0868,-1.013713 0.0135,-1.171224 -0.62904,-1.352821 -0.4,-0.113039 -1.72679,-0.218575 -2.94842,-0.234523 -4.10944,-0.05365 -6.76018,1.402389 -8.30247,4.560526 -0.75146,1.538751 -0.81346,1.929761 -0.81748,5.15593 -0.004,3.331964 0.035,3.562041 0.86091,5.053164 1.51727,2.739428 3.52257,3.77971 7.28018,3.776709 1.28,-10e-4 2.85091,-0.162779 3.49091,-0.35946 z m 24.02932,0.07123 c 2.60228,-0.871277 4.22269,-3.228024 3.97707,-5.784297 -0.20385,-2.121457 -1.01729,-2.98744 -4.23795,-4.511689 -1.55264,-0.734823 -2.98662,-1.549362 -3.18662,-1.810087 -0.65502,-0.8539 -0.44508,-2.292519 0.43636,-2.990158 0.70958,-0.561607 1.06841,-0.619365 3.17455,-0.510963 l 2.37454,0.122216 0.1081,-1.13353 c 0.13988,-1.466763 -0.2479,-1.670398 -3.16533,-1.6622 -3.57583,0.01005 -5.7835,1.371084 -6.47785,3.993611 -0.73285,2.767962 0.69566,4.8563 4.31995,6.315326 1.23725,0.498076 2.39731,1.194373 2.81306,1.688468 0.81472,0.96823 0.81648,0.978678 0.37725,2.238633 -0.57258,1.642527 -3.03005,2.206796 -5.87803,1.34968 l -1.35533,-0.407893 -0.0485,0.989711 c -0.0267,0.544341 -0.0594,1.2129 -0.0727,1.485686 -0.0143,0.292632 0.27393,0.578916 0.70303,0.698275 1.18856,0.330612 5.07333,0.285812 6.13841,-0.07079 z m 13.38453,-0.11658 c 2.83932,-1.00177 4.47034,-3.858228 3.74376,-6.55656 -0.39641,-1.472129 -2.07377,-2.874447 -4.64477,-3.883144 -3.10409,-1.217848 -4.01851,-2.86977 -2.45438,-4.433903 0.71095,-0.710942 0.87402,-0.742828 3.17999,-0.621795 2.26578,0.118923 2.44156,0.08679 2.59211,-0.47377 0.28912,-1.076531 0.17884,-1.844582 -0.29071,-2.024767 -0.78114,-0.299749 -4.63469,-0.194894 -5.67826,0.154506 -2.51213,0.841096 -3.97102,3.056058 -3.68489,5.594609 0.24087,2.136925 1.30683,3.140171 4.95973,4.667928 2.17501,0.909653 2.82721,1.589644 2.82721,2.947671 0,2.012497 -2.83344,3.015984 -5.86636,2.077626 -1.31126,-0.405692 -1.36289,-0.398955 -1.5233,0.19876 -0.0913,0.340277 -0.16782,1.035035 -0.17001,1.543907 -0.005,1.08634 0.2018,1.157656 3.52309,1.21698 1.35126,0.02414 2.71379,-0.135316 3.48679,-0.408048 z m -77.14346,-1.879608 0.69327,-2.036364 h 3.57412 3.57412 l 0.65586,2.036364 0.65585,2.036363 h 1.6882 c 0.92851,0 1.68819,-0.04577 1.68819,-0.101709 0,-0.123671 -5.70228,-16.002704 -6.15778,-17.147482 -0.31076,-0.780994 -0.39305,-0.809476 -2.10101,-0.727272 l -1.77757,0.08555 -3.11301,8.727273 c -1.71216,4.8 -3.11943,8.825455 -3.12727,8.945455 -0.008,0.12 0.67604,0.218181 1.51974,0.218181 h 1.53401 z m 1.48136,-4.436364 c 0.003,-0.04 0.6274,-1.861086 1.38654,-4.046857 l 1.38024,-3.97413 1.27842,3.683221 c 0.70313,2.025771 1.33683,3.846857 1.40822,4.046857 0.0981,0.274683 -0.55385,0.363636 -2.66495,0.363636 -1.53712,0 -2.79193,-0.03273 -2.78847,-0.07273 z m 52.35734,5.163637 v -1.309091 h -3.34545 -3.34546 v -2.60834 -2.60834 l 3.12728,-0.08257 3.12727,-0.08257 0.0894,-1.236363 0.0895,-1.236364 h -3.21673 -3.21673 v -2.472727 -2.472727 h 3.34546 3.34545 v -1.309091 -1.309091 h -4.94545 -4.94546 v 9.018182 9.018181 h 4.94546 4.94545 z m -136.381029,2.17904 c -2.894692,-0.608905 -5.15698,-2.712618 -6.01151,-5.590133 -0.596487,-2.00859 -0.549637,-6.34795 0.08782,-8.133791 1.541238,-4.31781 5.396985,-6.721426 10.008881,-6.239388 3.116544,0.325744 5.416822,1.980953 6.721567,4.836632 0.495095,1.083607 0.601695,1.917382 0.61397,4.802185 0.01351,3.175912 -0.05391,3.637553 -0.747274,5.116067 -1.867649,3.982568 -6.275553,6.133535 -10.67345,5.208428 z m 5.192297,-3.202969 c 2.235333,-1.140382 3.388286,-3.993408 3.108545,-7.692218 -0.264841,-3.501812 -1.808542,-5.704691 -4.404805,-6.285709 -3.938443,-0.881385 -6.80777,1.742174 -7.090955,6.483587 -0.221084,3.70167 0.752626,6.180764 2.955101,7.523767 1.256992,0.766476 3.900082,0.752158 5.432114,-0.02943 z m 9.879645,-6.685162 v -9.890909 l 3.563636,0.0016 c 1.96,8.92e-4 4.037217,0.13317 4.616038,0.293951 3.484718,0.967958 5.137254,4.323439 3.881752,7.88191 -0.933589,2.646074 -3.126444,4.06388 -6.606881,4.271725 l -2.254545,0.134638 v 3.598986 3.598986 h -1.6 -1.6 z m 7.490775,-0.326425 c 0.999343,-0.367862 1.815978,-1.943316 1.817228,-3.505801 0.0019,-2.387722 -1.745664,-3.725686 -4.87164,-3.729788 l -1.236363,-0.0016 v 3.762496 3.762495 l 0.8,0.105701 c 0.950872,0.125635 2.579136,-0.0579 3.490775,-0.39348 z m 8.218316,0.326425 v -9.890909 h 5.236363 5.236364 v 1.30909 1.309091 h -3.636364 -3.636363 v 2.909091 2.909091 h 3.490909 3.490909 v 1.163637 1.163636 h -3.490909 -3.490909 v 3.2 3.2 h 3.636363 3.636364 v 1.309091 1.309091 h -5.236364 -5.236363 z m 14.836363,-0.01274 v -9.903654 l 2.085337,0.08547 2.085336,0.08547 2.759257,4.654546 c 1.517591,2.56 3.53658,6.02909 4.486642,7.70909 l 1.727385,3.054546 -0.136279,-7.781818 -0.13628,-7.781818 h 1.564301 1.564301 v 9.890909 9.890909 l -2.109091,-0.0056 -2.109091,-0.0056 -3.666151,-6.321698 C 77.37201,27.717491 75.342919,24.197408 74.879303,23.372018 l -0.842939,-1.50071 0.09736,7.827982 0.09736,7.827983 H 72.75191 71.272735 Z"
         id="path3" />
      <path
         style="fill:#f48111"
         d="M 95.709091,26.618182 V 4.9454545 h 53.527269 53.52728 V 26.618182 48.290909 H 149.23636 95.709091 Z m 37.672729,9.928611 c 1.12937,-0.343525 1.16074,-0.38784 1.06541,-1.504916 -0.054,-0.633032 -0.18494,-1.239904 -0.29091,-1.348603 -0.10598,-0.108699 -0.91268,-0.0049 -1.79268,0.230665 -2.89524,0.775019 -5.26354,0.06535 -6.61943,-1.983534 -0.73832,-1.115683 -0.79876,-1.428717 -0.79876,-4.137342 0,-3.44372 0.57705,-4.903179 2.37893,-6.016805 1.1648,-0.719886 3.55676,-0.917866 5.66686,-0.46904 l 1.06396,0.226309 0.20269,-1.199661 c 0.13094,-0.775061 0.0838,-1.318492 -0.13306,-1.535401 -0.21374,-0.213742 -1.51965,-0.335738 -3.59392,-0.335738 -3.68523,0 -4.81791,0.397847 -6.72588,2.362414 -2.55926,2.635194 -3.20645,8.655705 -1.32527,12.328495 1.29109,2.520717 3.74231,3.759648 7.41115,3.745855 1.28,-0.0048 2.85091,-0.168027 3.49091,-0.362698 z m 14.54545,-0.0037 c 1.13734,-0.349517 1.16232,-0.385952 1.10516,-1.611875 -0.0322,-0.689852 -0.0978,-1.293593 -0.14584,-1.341647 -0.0481,-0.04805 -0.8072,0.102773 -1.68698,0.335172 -3.10694,0.820712 -5.62566,-0.08157 -6.95633,-2.491965 -0.97589,-1.767758 -1.02401,-5.674629 -0.092,-7.468959 1.30881,-2.519703 3.46418,-3.40965 6.68924,-2.761965 0.89993,0.180732 1.73022,0.229695 1.84508,0.108806 0.11486,-0.120889 0.25305,-0.73608 0.30707,-1.367092 0.0868,-1.013713 0.0135,-1.171224 -0.62904,-1.352821 -0.4,-0.113039 -1.72679,-0.218575 -2.94842,-0.234523 -4.10944,-0.05365 -6.76018,1.402389 -8.30247,4.560526 -0.75146,1.538751 -0.81346,1.929761 -0.81748,5.15593 -0.004,3.331964 0.035,3.562041 0.86091,5.053164 1.51727,2.739428 3.52257,3.77971 7.28018,3.776709 1.28,-10e-4 2.85091,-0.162779 3.49091,-0.35946 z m 24.02932,0.07123 c 2.60228,-0.871277 4.22269,-3.228024 3.97707,-5.784297 -0.20385,-2.121457 -1.01729,-2.98744 -4.23795,-4.511689 -1.55264,-0.734823 -2.98662,-1.549362 -3.18662,-1.810087 -0.65502,-0.8539 -0.44508,-2.292519 0.43636,-2.990158 0.70958,-0.561607 1.06841,-0.619365 3.17455,-0.510963 l 2.37454,0.122216 0.1081,-1.13353 c 0.13988,-1.466763 -0.2479,-1.670398 -3.16533,-1.6622 -3.57583,0.01005 -5.7835,1.371084 -6.47785,3.993611 -0.73285,2.767962 0.69566,4.8563 4.31995,6.315326 1.23725,0.498076 2.39731,1.194373 2.81306,1.688468 0.81472,0.96823 0.81648,0.978678 0.37725,2.238633 -0.57258,1.642527 -3.03005,2.206796 -5.87803,1.34968 l -1.35533,-0.407893 -0.0485,0.989711 c -0.0267,0.544341 -0.0594,1.2129 -0.0727,1.485686 -0.0143,0.292632 0.27393,0.578916 0.70303,0.698275 1.18856,0.330612 5.07333,0.285812 6.13841,-0.07079 z m 13.38453,-0.11658 c 2.83932,-1.00177 4.47034,-3.858228 3.74376,-6.55656 -0.39641,-1.472129 -2.07377,-2.874447 -4.64477,-3.883144 -3.10409,-1.217848 -4.01851,-2.86977 -2.45438,-4.433903 0.71095,-0.710942 0.87402,-0.742828 3.17999,-0.621795 2.26578,0.118923 2.44156,0.08679 2.59211,-0.47377 0.28912,-1.076531 0.17884,-1.844582 -0.29071,-2.024767 -0.78114,-0.299749 -4.63469,-0.194894 -5.67826,0.154506 -2.51213,0.841096 -3.97102,3.056058 -3.68489,5.594609 0.24087,2.136925 1.30683,3.140171 4.95973,4.667928 2.17501,0.909653 2.82721,1.589644 2.82721,2.947671 0,2.012497 -2.83344,3.015984 -5.86636,2.077626 -1.31126,-0.405692 -1.36289,-0.398955 -1.5233,0.19876 -0.0913,0.340277 -0.16782,1.035035 -0.17001,1.543907 -0.005,1.08634 0.2018,1.157656 3.52309,1.21698 1.35126,0.02414 2.71379,-0.135316 3.48679,-0.408048 z m -77.14346,-1.879608 0.69327,-2.036364 h 3.57412 3.57412 l 0.65586,2.036364 0.65585,2.036363 h 1.6882 c 0.92851,0 1.68819,-0.04577 1.68819,-0.101709 0,-0.123671 -5.70228,-16.002704 -6.15778,-17.147482 -0.31076,-0.780994 -0.39305,-0.809476 -2.10101,-0.727272 l -1.77757,0.08555 -3.11301,8.727273 c -1.71216,4.8 -3.11943,8.825455 -3.12727,8.945455 -0.008,0.12 0.67604,0.218181 1.51974,0.218181 h 1.53401 z m 1.48136,-4.436364 c 0.003,-0.04 0.6274,-1.861086 1.38654,-4.046857 l 1.38024,-3.97413 1.27842,3.683221 c 0.70313,2.025771 1.33683,3.846857 1.40822,4.046857 0.0981,0.274683 -0.55385,0.363636 -2.66495,0.363636 -1.53712,0 -2.79193,-0.03273 -2.78847,-0.07273 z m 52.35734,5.163637 v -1.309091 h -3.34545 -3.34546 v -2.60834 -2.60834 l 3.12728,-0.08257 3.12727,-0.08257 0.0894,-1.236363 0.0895,-1.236364 h -3.21673 -3.21673 v -2.472727 -2.472727 h 3.34546 3.34545 v -1.309091 -1.309091 h -4.94545 -4.94546 v 9.018182 9.018181 h 4.94546 4.94545 z m -136.381029,2.17904 c -2.894692,-0.608905 -5.15698,-2.712618 -6.01151,-5.590133 -0.596487,-2.00859 -0.549637,-6.34795 0.08782,-8.133791 1.541238,-4.31781 5.396985,-6.721426 10.008881,-6.239388 3.116544,0.325744 5.416822,1.980953 6.721567,4.836632 0.495095,1.083607 0.601695,1.917382 0.61397,4.802185 0.01351,3.175912 -0.05391,3.637553 -0.747274,5.116067 -1.867649,3.982568 -6.275553,6.133535 -10.67345,5.208428 z m 5.192297,-3.202969 c 2.235333,-1.140382 3.388286,-3.993408 3.108545,-7.692218 -0.264841,-3.501812 -1.808542,-5.704691 -4.404805,-6.285709 -3.938443,-0.881385 -6.80777,1.742174 -7.090955,6.483587 -0.221084,3.70167 0.752626,6.180764 2.955101,7.523767 1.256992,0.766476 3.900082,0.752158 5.432114,-0.02943 z m 9.879645,-6.685162 v -9.890909 l 3.563636,0.0016 c 1.96,8.92e-4 4.037217,0.13317 4.616038,0.293951 3.484718,0.967958 5.137254,4.323439 3.881752,7.88191 -0.933589,2.646074 -3.126444,4.06388 -6.606881,4.271725 l -2.254545,0.134638 v 3.598986 3.598986 h -1.6 -1.6 z m 7.490775,-0.326425 c 0.999343,-0.367862 1.815978,-1.943316 1.817228,-3.505801 0.0019,-2.387722 -1.745664,-3.725686 -4.87164,-3.729788 l -1.236363,-0.0016 v 3.762496 3.762495 l 0.8,0.105701 c 0.950872,0.125635 2.579136,-0.0579 3.490775,-0.39348 z m 8.218316,0.326425 v -9.890909 h 5.236363 5.236364 v 1.30909 1.309091 h -3.636364 -3.636363 v 2.909091 2.909091 h 3.490909 3.490909 v 1.163637 1.163636 h -3.490909 -3.490909 v 3.2 3.2 h 3.636363 3.636364 v 1.309091 1.309091 h -5.236364 -5.236363 z m 14.836363,-0.01274 v -9.903654 l 2.085337,0.08547 2.085336,0.08547 2.759257,4.654546 c 1.517591,2.56 3.53658,6.02909 4.486642,7.70909 l 1.727385,3.054546 -0.136279,-7.781818 -0.13628,-7.781818 h 1.564301 1.564301 v 9.890909 9.890909 l -2.109091,-0.0056 -2.109091,-0.0056 -3.666151,-6.321698 C 77.37201,27.717491 75.342919,24.197408 74.879303,23.372018 l -0.842939,-1.50071 0.09736,7.827982 0.09736,7.827983 H 72.75191 71.272735 Z"
         id="path2" />
      <path
         style="fill:#ffffff;stroke:#ffffff;stroke-width:0.240848"
         d="m 104.54317,36.320418 c 0.008,-0.106272 1.3933,-4.040769 3.07771,-8.743326 l 3.06256,-8.550102 1.55861,-0.06902 1.55862,-0.06902 1.29266,3.561318 c 2.51309,6.92363 4.84896,13.573561 4.84896,13.804413 0,0.128586 -0.59151,0.233792 -1.31447,0.233792 h -1.31446 l -0.51703,-1.746147 c -0.28436,-0.960382 -0.62737,-1.881625 -0.76223,-2.047208 -0.34716,-0.426232 -7.30092,-0.427614 -7.57809,-0.0015 -0.10717,0.164754 -0.47885,1.058903 -0.82596,1.986996 l -0.63112,1.687441 -1.23545,0.0728 c -0.67951,0.04004 -1.22864,-0.01415 -1.22031,-0.120424 z m 10.63305,-5.984327 c 0.12097,-0.120965 -0.87563,-3.118216 -2.26515,-6.81237 -0.31537,-0.838457 -0.67776,-1.499487 -0.8053,-1.468956 -0.19755,0.04729 -2.99112,7.715483 -2.99891,8.231867 -0.003,0.204427 5.86656,0.252258 6.06936,0.04946 z"
         id="path9"
         transform="translate(0.26276423,-0.034454)" />
      <path
         style="fill:#ffffff;stroke:#ffffff;stroke-width:0.240848"
         d="m 127.09969,36.482572 c -2.91334,-0.737692 -4.85593,-2.916242 -5.44583,-6.10732 -0.35723,-1.932429 0.031,-5.498941 0.78393,-7.20142 1.47667,-3.339021 5.03747,-4.976572 9.58572,-4.408307 1.72259,0.215224 1.92688,0.367948 1.74026,1.301031 l -0.15336,0.766793 h -2.46286 c -3.73253,0 -4.96172,0.574028 -6.07237,2.835775 -0.62317,1.269027 -0.6772,1.600067 -0.6772,4.148816 0,2.242392 0.0856,2.930253 0.44965,3.61272 1.13878,2.134862 2.61044,2.972936 5.21027,2.967127 0.9935,-0.0022 2.20314,-0.11742 2.68808,-0.256001 0.80467,-0.229948 0.89383,-0.206827 1.02031,0.264602 0.30601,1.140518 0.16497,1.546169 -0.63758,1.833749 -1.04834,0.375659 -4.89243,0.530234 -6.02902,0.242435 z"
         id="path10"
         transform="translate(0.26276423,-0.034454)" />
      <path
         style="fill:#ffffff;stroke:#ffffff;stroke-width:0.240848"
         d="m 141.7955,36.483386 c -2.21248,-0.560594 -3.83671,-1.844335 -4.78579,-3.78254 -0.46969,-0.959212 -0.57768,-1.617823 -0.65158,-3.973998 -0.0747,-2.382968 -0.007,-3.094425 0.43668,-4.553529 0.44621,-1.469063 0.73365,-1.93769 1.9101,-3.114139 1.72049,-1.72049 3.60169,-2.407136 6.49157,-2.369455 2.82815,0.03688 3.03131,0.136037 3.12016,1.522867 0.0718,1.121013 0.0531,1.159459 -0.4817,0.991856 -0.30602,-0.0959 -1.48493,-0.230937 -2.6198,-0.300085 -2.38214,-0.145146 -3.45568,0.240167 -4.73787,1.700499 -1.11421,1.26902 -1.38991,2.342776 -1.36941,5.333502 0.015,2.192179 0.10473,2.815564 0.51985,3.61272 0.60748,1.166537 1.61822,2.157743 2.59302,2.5429 0.63433,0.250636 3.41223,0.332787 5.5395,0.163819 0.67115,-0.05331 0.7278,0.0058 0.79639,0.830702 0.0701,0.842795 0.0271,0.901594 -0.84296,1.15279 -1.28672,0.371491 -4.83466,0.516625 -5.91816,0.242091 z"
         id="path11"
         transform="translate(0.26276423,-0.034454)" />
      <path
         style="fill:#ffffff;stroke:#ffffff;stroke-width:0.240848"
         d="m 152.21592,27.577092 v -8.911374 h 4.57611 4.57611 v 1.083815 1.083816 h -3.21575 -3.21575 l -0.15468,1.986996 c -0.0851,1.092848 -0.15533,2.339236 -0.15612,2.769752 l -0.001,0.782756 h 3.26529 3.2653 l -0.0741,1.023603 -0.0741,1.023604 -3.07081,0.06741 -3.07082,0.06741 -0.0374,1.37768 c -0.0206,0.757724 -0.0477,2.08216 -0.0602,2.943192 l -0.0228,1.565512 3.31166,0.06701 3.31166,0.06701 v 0.956595 0.956595 h -4.57611 -4.57611 z"
         id="path12"
         transform="translate(0.26276423,-0.034454)" />
      <path
         style="fill:#ffffff;stroke:#ffffff;stroke-width:0.240848"
         d="m 166.06467,36.535154 c -0.62989,-0.147569 -0.73237,-0.289017 -0.79918,-1.103111 -0.0422,-0.51361 0.0203,-1.03075 0.13872,-1.149201 0.12659,-0.126586 0.88128,-0.06093 1.83082,0.159285 3.25346,0.75453 5.8018,-0.715243 5.35641,-3.089358 -0.20707,-1.103803 -0.8398,-1.631548 -3.89624,-3.249764 -3.18454,-1.686042 -3.71434,-2.3175 -3.71434,-4.427058 0,-0.781787 0.15332,-1.714098 0.34072,-2.071802 0.40196,-0.767258 1.70563,-2.03361 2.53124,-2.45878 0.71906,-0.3703 5.5522,-0.595111 6.01095,-0.279596 0.23158,0.159272 0.28564,0.480346 0.17773,1.055556 l -0.15508,0.826659 -2.37996,-0.01753 c -2.05589,-0.01514 -2.45241,0.04799 -2.91193,0.463598 -1.3853,1.252923 -1.44782,2.86499 -0.14896,3.84088 0.41257,0.309978 1.72556,1.05128 2.91776,1.647337 3.29207,1.645918 3.97922,2.460354 3.9687,4.703857 -0.01,2.09691 -1.2641,3.889986 -3.33544,4.76826 -0.95827,0.406315 -4.77666,0.651416 -5.93192,0.380767 z"
         id="path13"
         transform="translate(0.26276423,-0.034454)" />
      <path
         style="fill:#ffffff;stroke:#ffffff;stroke-width:0.240848"
         d="m 179.19089,36.531235 c -0.51831,-0.157164 -0.61251,-0.344762 -0.67679,-1.347753 l -0.0747,-1.165176 0.67679,0.168826 c 1.38911,0.346514 3.89635,0.422431 4.74133,0.143563 1.1488,-0.379139 2.07708,-1.513752 2.07708,-2.538763 0,-1.235419 -0.99645,-2.214566 -3.35947,-3.301117 -3.54872,-1.631758 -4.34766,-2.529512 -4.34766,-4.885348 0,-3.255497 2.24811,-4.94412 6.57152,-4.936061 1.08822,0.002 2.1221,0.09468 2.29751,0.205892 0.1918,0.121607 0.2878,0.528139 0.24084,1.019916 l -0.0781,0.817711 -1.63391,-0.08227 c -2.04416,-0.102929 -3.91558,0.324861 -4.3911,1.003767 -0.19661,0.280692 -0.35747,1.022626 -0.35747,1.648742 0,1.003094 0.093,1.208315 0.78276,1.726712 0.43052,0.323576 1.6713,1.031965 2.75731,1.574199 3.40488,1.700036 4.31339,2.838002 4.12072,5.161435 -0.1485,1.790628 -1.21948,3.297752 -2.94246,4.140729 -1.05522,0.516269 -1.73478,0.656442 -3.55344,0.732961 -1.23679,0.05204 -2.51966,0.01245 -2.85082,-0.08796 z"
         id="path14"
         transform="translate(0.26276423,-0.034454)" />
    </g>
  </g>
</svg>
